# Blender MTL File: 'city.blend'
# Material Count: 3

newmtl Material
Ns 96.078431
Ka 0.000000 0.000000 0.000000
Kd 0.098504 0.098504 0.098504
Ks 0.000000 0.000000 0.000000
Ni 1.000000
d 1.000000
illum 1
map_Kd ConcreteDirty0323_1_S.jpg

newmtl None
Ns 0
Ka 0.000000 0.000000 0.000000
Kd 0.8 0.8 0.8
Ks 0.8 0.8 0.8
d 1
illum 2

newmtl walls
Ns 96.078431
Ka 0.000000 0.000000 0.000000
Kd 0.800000 0.800000 0.800000
Ks 0.184211 0.184211 0.184211
Ni 1.000000
d 1.000000
illum 2
map_Kd wall.jpg
