# Blender MTL File: 'GITest.blend'
# Material Count: 1

newmtl ground
Ns 96.078431
Ka 0.000000 0.000000 0.000000
Kd 0.800000 0.800000 0.800000
Ks 0.000000 0.000000 0.000000
Ni 1.000000
d 1.000000
illum 1
map_Kd GrassDead0095_18_S.jpg
